Photosynthesis TPC fitting
…
glimpse(d_preds_groups)

## Rows: 68
## Columns: 6
## Groups: species [2]
## $ species          <chr> "P. grandis", "P. grandis", "P. grandis", "P. grandi
## $ transformed.rate <dbl> 0.24767222, 0.11650518, 0.16287719, 0.17471001, 0.03
## $ Temp.Cat         <int> 22, 25, 28, 30, 32, 36, 22, 25, 28, 30, 32, 36, 22, 
## $ `(weights)`      <dbl> 1, 1, 1, 1, 1, 1, 1, 1, 1, 1, 1, 1, 1, 1, 1, 1, 1, 1
## $ .fitted          <dbl> 0.15452263, 0.17376373, 0.19540073, 0.20311417, 0.16
## $ .resid           <dbl> 0.093149593, -0.057258551, -0.032523543, -0.02840415

d_preds_groups

## # A tibble: 68 x 6
## # Groups:   species [2]
##    species    transformed.rate Temp.Cat `(weights)` .fitted  .resid
##    <chr>                 <dbl>    <int>       <dbl>   <dbl>   <dbl>
##  1 P. grandis           0.248        22           1  0.155   0.0931
##  2 P. grandis           0.117        25           1  0.174  -0.0573
##  3 P. grandis           0.163        28           1  0.195  -0.0325
##  4 P. grandis           0.175        30           1  0.203  -0.0284
##  5 P. grandis           0.0381       32           1  0.169  -0.131 
##  6 P. grandis          -0.214        36           1 -0.0802 -0.134 
##  7 P. grandis           0.114        22           1  0.155  -0.0407
##  8 P. grandis           0.0485       25           1  0.174  -0.125 
##  9 P. grandis           0.182        28           1  0.195  -0.0135
## 10 P. grandis           0.172        30           1  0.203  -0.0316
## #  with 58 more rows
…
