tpcbass_drc_fitting
…
# Fit model to each group, get parameters, fitted values, and residuals
df2 <- x %>% #left_join(mutate(id, tag_number = number)) %>%
  filter(tpcbass == "Yes") %>%
  select(species = species.x,  tag_number, date, max_temp = max_temp.x,  fvfmraw, fvfm) %>%
  mutate(species2 = case_when(species == "P. grandis" ~ "Pgra",
                              species == "P. verrucosa" ~ "Pver"))

modn <- drm(fvfm ~ max_temp, data = df2,
    fct = LL.3(names = c("hill", "max", "ED50")))
mod <- drm(fvfm ~ max_temp, curveid = species2, data = df2,
    fct = LL.3(names = c("hill", "max", "ED50")))
augment(mod, df2) %>%
  arrange(-.cooksd)

## # A tibble: 91 x 10
##    species tag_number date       max_temp fvfmraw  fvfm species2 .fitted  .resid
##    <chr>        <dbl> <date>        <dbl>   <dbl> <dbl> <chr>      <dbl>   <dbl>
##  1 P. gra        168 2022-12-08       36   0.098 0.098 Pgra      0.249  -0.151 
##  2 P. gra        167 2022-12-08       35   0.537 0.537 Pgra      0.443   0.0942
##  3 P. gra        156 2022-12-08       36   0.34  0.34  Pgra      0.249   0.0915
##  4 P. gra        167 2022-12-08       36   0.330 0.330 Pgra      0.249   0.0810
##  5 P. ver        179 2022-12-08       35   0.502 0.502 Pver      0.434   0.0689
##  6 P. ver        179 2022-12-08       36   0.132 0.132 Pver      0.191  -0.0581
##  7 P. ver        154 2022-12-08       34   0.436 0.436 Pver      0.545  -0.109 
##  8 P. ver        181 2022-12-08       36   0.141 0.141 Pver      0.191  -0.0496
##  9 P. gra        165 2022-12-08       36   0.188 0.188 Pgra      0.249  -0.0605
## 10 P. ver        169 2022-12-08       37   0.132 0.132 Pver      0.0441  0.0874
## #  with 81 more rows, and 1 more variable: .cooksd <dbl>
…
